Extract Formulas from an Excel Worksheet — ngr_xl_map_colnames • ngr
…
This function reads the Excel file and filters cells to extract only those with formulas
from the specified sheet and row. The output includes all unique formulas from the target row.

    See also

    Other excel:
ngr_xl_map_formulas(),
ngr_xl_read_formulas()

    Examples

path <- system.file("extdata", "pscis_phase1.xlsm", package = "ngr")
ngr_xl_map_colnames(path, sheet = "PSCIS Assessment Worksheet", row_id = 4)
#> # A tibble: 42 × 4
#>    address character                       address_rowless names_clean          
#>    <chr>   <chr>                           <chr>           <chr>                
#>  1 A4      Date of Assessment (YYYY-MM-DD) A               date_of_assessment_y…
#>  2 B4      PSCIS Crossing ID               B               pscis_crossing_id    
#>  3 C4      My Crossing Reference           C               my_crossing_reference
#>  4 D4      Crew Members                    D               crew_members         
#>  5 E4      UTM Zone                        E               utm_zone             
#>  6 F4      Easting                         F               easting              
#>  7 G4      Northing                        G               northing             
#>  8 H4      Stream Name                     H               stream_name          
#>  9 I4      Road Name                       I               road_name            
#> 10 J4      Road KM Mark                    J               road_km_mark         
#> # ℹ 32 more rows
…
